\relax 
\catcode `"\active 
\bibstyle{plain}
\select@language{brazil}
\@writefile{toc}{\select@language{brazil}}
\@writefile{lof}{\select@language{brazil}}
\@writefile{lot}{\select@language{brazil}}
\@writefile{toc}{\contentsline {chapter}{\numberline {1}Dados de identficia\IeC {\c c}\IeC {\~a}o}{1}}
\@writefile{lof}{\addvspace {10\p@ }}
\@writefile{lot}{\addvspace {10\p@ }}
\@writefile{toc}{\contentsline {chapter}{\numberline {2}Introdu\IeC {\c c}\IeC {\~a}o}{2}}
\@writefile{lof}{\addvspace {10\p@ }}
\@writefile{lot}{\addvspace {10\p@ }}
\@writefile{toc}{\contentsline {section}{\numberline {2.1}Justificativa}{2}}
\@writefile{toc}{\contentsline {section}{\numberline {2.2}Objetivos}{3}}
\@writefile{toc}{\contentsline {subsection}{\numberline {2.2.1}Gerais}{3}}
\@writefile{toc}{\contentsline {subsection}{\numberline {2.2.2}Espec\IeC {\'\i }ficos}{3}}
\citation{MARTIN_FOLLOWER}
\@writefile{toc}{\contentsline {chapter}{\numberline {3}Fundamenta\IeC {\c c}\IeC {\~a}o Te\IeC {\'o}rica}{4}}
\@writefile{lof}{\addvspace {10\p@ }}
\@writefile{lot}{\addvspace {10\p@ }}
\@writefile{toc}{\contentsline {section}{\numberline {3.1}Arquitetura}{4}}
\@writefile{lof}{\contentsline {figure}{\numberline {3.1}{\ignorespaces Microservices}}{4}}
\providecommand*\caption@xref[2]{\@setref\relax\@undefined{#1}}
\newlabel{fig:microservices}{{3.1}{4}}
\citation{LEARNING_DOCKER}
\@writefile{lof}{\contentsline {figure}{\numberline {3.2}{\ignorespaces Containeres em uma \IeC {\'u}nica m\IeC {\'a}quina\relax }}{5}}
\newlabel{fig:severalContainers}{{3.2}{5}}
\@writefile{lof}{\contentsline {figure}{\numberline {3.3}{\ignorespaces Cont\IeC {\^a}ineres vs m\IeC {\'a}quinas virtuais\relax }}{5}}
\newlabel{fig:containersVSVm}{{3.3}{5}}
\citation{RABITTMQ_TOPICS}
\@writefile{toc}{\contentsline {section}{\numberline {3.2}Problemas e solu\IeC {\c c}\IeC {\~o}es na arquitetura}{6}}
\@writefile{lof}{\contentsline {figure}{\numberline {3.4}{\ignorespaces Fluxo do documento\relax }}{6}}
\newlabel{fig:estado}{{3.4}{6}}
\@writefile{lof}{\contentsline {figure}{\numberline {3.5}{\ignorespaces Fila em t\IeC {\'o}picos\relax }}{7}}
\newlabel{fig:apmqTopics}{{3.5}{7}}
\@writefile{toc}{\contentsline {chapter}{\numberline {4}Detalhamento da metodologia}{8}}
\@writefile{lof}{\addvspace {10\p@ }}
\@writefile{lot}{\addvspace {10\p@ }}
\@writefile{lof}{\contentsline {figure}{\numberline {4.1}{\ignorespaces Solu\IeC {\c c}\IeC {\~a}o geral\relax }}{8}}
\newlabel{fig:componentes}{{4.1}{8}}
\citation{JSON_RPC_2}
\citation{AJAX}
\@writefile{lof}{\contentsline {figure}{\numberline {4.2}{\ignorespaces Funcionamento do processo\relax }}{9}}
\newlabel{fig:sequencia}{{4.2}{9}}
\@writefile{lof}{\contentsline {figure}{\numberline {4.3}{\ignorespaces Classes que manipulam filas\relax }}{9}}
\newlabel{fig:classes}{{4.3}{9}}
\@writefile{toc}{\contentsline {section}{\numberline {4.1}API e Web}{9}}
\citation{CORS}
\@writefile{toc}{\contentsline {section}{\numberline {4.2}Processamento da imagem}{10}}
\@writefile{lof}{\contentsline {figure}{\numberline {4.4}{\ignorespaces Imagem de entrada\relax }}{11}}
\newlabel{fig:imgmPura}{{4.4}{11}}
\@writefile{lof}{\contentsline {figure}{\numberline {4.5}{\ignorespaces Resultado da transforma\IeC {\c c}\IeC {\~a}o\relax }}{11}}
\newlabel{fig:imgmCinza}{{4.5}{11}}
\@writefile{toc}{\contentsline {section}{\numberline {4.3}Identifica\IeC {\c c}\IeC {\~a}o de formul\IeC {\'a}rios}{11}}
\@writefile{lof}{\contentsline {figure}{\numberline {4.6}{\ignorespaces Detec\IeC {\c c}\IeC {\~a}o de checkboxes\relax }}{11}}
\newlabel{fig:deteccaoDeCheckbox}{{4.6}{11}}
\@writefile{lof}{\contentsline {figure}{\numberline {4.7}{\ignorespaces Desafios na detec\IeC {\c c}\IeC {\~a}o de checkbox\relax }}{12}}
\newlabel{fig:checkboxDesafios}{{4.7}{12}}
\@writefile{lof}{\contentsline {figure}{\numberline {4.8}{\ignorespaces Detec\IeC {\c c}\IeC {\~a}o de checkbox com sucesso\relax }}{12}}
\newlabel{fig:checkboxSucesso}{{4.8}{12}}
\@writefile{lol}{\contentsline {lstlisting}{isBoxy.py}{12}}
\citation{TRAINING_TESSERACT}
\@writefile{lof}{\contentsline {figure}{\numberline {4.9}{\ignorespaces Caixa serrilhada\relax }}{13}}
\newlabel{fig:checkboxZoom}{{4.9}{13}}
\@writefile{toc}{\contentsline {section}{\numberline {4.4}Reconhecimento de car\IeC {\'a}cteres}{13}}
\@writefile{lol}{\contentsline {lstlisting}{hocr.html}{13}}
\citation{FULL_TEXT}
\@writefile{lof}{\contentsline {figure}{\numberline {4.10}{\ignorespaces Boxfile}}{14}}
\newlabel{fig:boxFile}{{4.10}{14}}
\@writefile{toc}{\contentsline {section}{\numberline {4.5}Indexa\IeC {\c c}\IeC {\~a}o}{14}}
\@writefile{toc}{\contentsline {section}{\numberline {4.6}Reapreendizado}{14}}
\@writefile{toc}{\contentsline {section}{\numberline {4.7}Provisionamento e orquestra\IeC {\c c}\IeC {\~a}o}{14}}
\@writefile{toc}{\contentsline {chapter}{\numberline {5}An\IeC {\'a}lise dos resultados}{16}}
\@writefile{lof}{\addvspace {10\p@ }}
\@writefile{lot}{\addvspace {10\p@ }}
\@writefile{lof}{\contentsline {figure}{\numberline {5.1}{\ignorespaces Tela de upload de arquivo\relax }}{16}}
\newlabel{fig:inicial}{{5.1}{16}}
\@writefile{lof}{\contentsline {figure}{\numberline {5.2}{\ignorespaces Tela de listagem de arquivos\relax }}{16}}
\newlabel{fig:listaDocs}{{5.2}{16}}
\@writefile{lof}{\contentsline {figure}{\numberline {5.3}{\ignorespaces Pesquisa de texto nos arquivos\relax }}{17}}
\newlabel{fig:pesquisaTexto}{{5.3}{17}}
\@writefile{lof}{\contentsline {figure}{\numberline {5.4}{\ignorespaces Visualiza\IeC {\c c}\IeC {\~a}o da imagem\relax }}{17}}
\newlabel{fig:viewImage}{{5.4}{17}}
\@writefile{lof}{\contentsline {figure}{\numberline {5.5}{\ignorespaces Visualiza\IeC {\c c}\IeC {\~a}o de texto\relax }}{17}}
\newlabel{fig:viewText}{{5.5}{17}}
\@writefile{lof}{\contentsline {figure}{\numberline {5.6}{\ignorespaces Convers\IeC {\~a}o de texto, falha\relax }}{18}}
\newlabel{fig:falha}{{5.6}{18}}
\@writefile{lof}{\contentsline {figure}{\numberline {5.7}{\ignorespaces Detec\IeC {\c c}\IeC {\~a}o de checkboz\relax }}{18}}
\newlabel{fig:checkboxSucessoDetalhe}{{5.7}{18}}
\@writefile{lof}{\contentsline {subfigure}{\numberline{(a)}{\ignorespaces {Falha}}}{18}}
\@writefile{lof}{\contentsline {subfigure}{\numberline{(b)}{\ignorespaces {Sucesso}}}{18}}
\bibdata{Master}
\@writefile{toc}{\contentsline {chapter}{\numberline {6}Conclus\IeC {\~a}o e trabalhos futuros}{19}}
\@writefile{lof}{\addvspace {10\p@ }}
\@writefile{lot}{\addvspace {10\p@ }}
\bibcite{AJAX}{1}
\bibcite{TRAINING_TESSERACT}{2}
\bibcite{CORS}{3}
\bibcite{RABITTMQ_TOPICS}{4}
\bibcite{FULL_TEXT}{5}
\bibcite{MARTIN_FOLLOWER}{6}
\bibcite{JSON_RPC_2}{7}
\bibcite{LEARNING_DOCKER}{8}
